[www.scentbird.com/aff-offer.html]
[backblue.gif]
[fade.gif]
[index.html]
[cdn.scentbird.com/assets/favicon/apple-icon-57x57-eecb07680d52e8b783dea7dbf78345a2.png]
[cdn.scentbird.com/assets/favicon/apple-icon-60x60-7d5f42a533b6f3c76ac714e82e603e05.png]
[cdn.scentbird.com/assets/favicon/apple-icon-72x72-50cc4bc25ac6b3417260a8811bac541d.png]
[cdn.scentbird.com/assets/favicon/apple-icon-76x76-538009d0f0cad2e147ac71ea67532fac.png]
[cdn.scentbird.com/assets/favicon/apple-icon-114x114-fab00565b7992888611b68faf957ee1e.png]
[cdn.scentbird.com/assets/favicon/apple-icon-120x120-906f3743ec7208b372a7fbbf14987039.png]
[cdn.scentbird.com/assets/favicon/apple-icon-144x144-4ca6e9370f24348bc306b6c9a6a03d43.png]
[cdn.scentbird.com/assets/favicon/apple-icon-152x152-08359d2beaf0cfbf755e9fab7cb84cb3.png]
[cdn.scentbird.com/assets/favicon/apple-icon-180x180-c80cb9900806ea6d63b76e547d6af125.png]
[cdn.scentbird.com/assets/favicon/android-icon-192x192-e72c6abb33ad34e76adb6bc28048d79b.png]
[cdn.scentbird.com/assets/favicon/favicon-32x32-b5cf470138b46b802f594eb54b0c7c08.png]
[cdn.scentbird.com/assets/favicon/favicon-96x96-370450549b8c6b7b248bc46ebc051a43.png]
[cdn.scentbird.com/assets/favicon/favicon-16x16-ecd589b49d3740c50cd006ab054241d2.png]
[www.scentbird.com/ms-icon-144x144.png]
[cdn.scentbird.com/scripts/normalize/3.0.3/normalize.min.css]
[cdn.scentbird.com/scripts/raven/3.16.0/raven.min.js]
[www.google-analytics.com/analytics.js]
[www.scentbird.com/linkid.js]
[d3qxef4rp70elm.cloudfront.net/m.js]
[cdn.scentbird.com/assets/app/header-footer-56ac2270e16f11675c5b7a4669729f82.css]
[cdn.scentbird.com/assets/app/free-scentbird-perfume-social-18200d117ca56e9ff110a6d98355a914.css]
[cdn.scentbird.com/assets/content/features-list/scentbird-case-ca5274633ede832dc2f43313ec9d141a.jpg]
[cdn.scentbird.com/assets/common/countdown-9c443afa41d88ed704db693785030fdd.js]
[www.scentbird.com/assets/logo/white.svg]
[www.scentbird.com/assets/logo/black.svg]
[www.scentbird.com/index.html]
[www.scentbird.com/men.html]
[www.scentbird.com/how-it-works.html]
[www.scentbird.com/register/log-in.html]
[www.scentbird.com/invite.html]
[www.scentbird.com/team.html]
[www.scentbird.com/blogger.html]
[www.scentbird.com/affiliate-program.html]
[www.scentbird.com/press.html]
[www.scentbird.com/careers.html]
[www.scentbird.com/subscription/smartsearch.html]
[www.scentbird.com/gift.html]
[www.scentbird.com/blog/index.html]
[www.scentbird.com/perfumes.html]
[www.scentbird.com/colognes.html]
[www.scentbird.com/privacy.html]
[www.scentbird.com/terms.html]
[cdn.scentbird.com/assets/sitelock-scentbird-30526e33168e30d5c21315a51052158f.png]
[cdn.scentbird.com/assets/mixpanel_badge_blue-e15cf4e7a50171b92cc526bd68ba75f3.png]
[cdn.scentbird.com/assets/comodo_secure_76x26_transp-ad79f9ee3842ef5c957491af7639bf49.png]
[cdn.scentbird.com/assets/app/commons-49b2124684ed4d2ecd5fbebfdac4823d.js]
[cdn.scentbird.com/assets/app/header-footer-eb9d721bc0eb0cd2b7eaead3ef72852a.js]
[apis.google.com/js/api_client.js]
[cdn.scentbird.com/assets/common/scroll-to-62985de77ce83305de128bc7398d8828.js]
[cdn.scentbird.com/assets/app/free-scentbird-perfume-social-785ce16899941b9ea0028e469657af95.js]
[connect.facebook.net/en_US/fbevents.js]
[www.scentbird.com/aff-offer.html]
[cdn.scentbird.com/scripts/normalize/3.0.3/normalize.min.css]
[www.scentbird.com/linkid.html]
[www.googletagmanager.com/gtm5445.html]
[cdn.scentbird.com/assets/content/first-section/ebates-4cb9f0d6e95acdb5717097e303c0f104.png]
[cdn.scentbird.com/assets/content/first-section/swagbucks-96194f8804d67216a8997ff7905d2d02.png]
[cdn.scentbird.com/assets/content/first-section/boxes-80f1be7dcb725406bd7b3bb532bcd70b.png]
[cdn.scentbird.com/assets/content/first-section/main-hand-cream@2x-f15fd3623ae52b727b32bb947375eb16.jpg]
[cdn.scentbird.com/assets/content/first-section/main2-038c97da7eefa220d5e19f544c69ded6.jpg]
[cdn.scentbird.com/assets/content/first-section/main-men3-e8f835145c75f242352bfce55f523066.jpg]
[cdn.scentbird.com/assets/content/first-section/man-0458a4f12d6c33db6262e495921c8e55.png]
[cdn.scentbird.com/assets/content/first-section/woman-cb41848480cbd2998870d3c7263800a9.png]
[cdn.scentbird.com/assets/content/first-section/main2@2x-e0f4e78630ed33757dc7b975fbf9457b.jpg]
[cdn.scentbird.com/assets/content/first-section/main-men3@2x-eeecd0d042b4b50f8c98fb880784795f.jpg]
[cdn.scentbird.com/assets/content/first-section/man@2x-7d54ae7bc9c0446124ce70e53d0d3a77.png]
[cdn.scentbird.com/assets/content/first-section/woman@2x-1c7473d1b0de22a298e1239b50cea81a.png]
[cdn.scentbird.com/assets/content/first-section/main-tablet2-a055e8116d0d619d0d7cadce1cece8b5.jpg]
[cdn.scentbird.com/assets/content/first-section/main-tablet-men2-bdf4e83a06350bfb61b7eb8b5af5579f.jpg]
[cdn.scentbird.com/assets/content/first-section/main-mobile-hand-creams@2x-ccff06d4ee24c668c48ec1f202b5b452.jpg]
[cdn.scentbird.com/assets/content/first-section/first-section-mobile-c0eff8138b6d40f502eaf4e83e659288.jpg]
[cdn.scentbird.com/assets/content/first-section/first-section-men-mobile-eccca470ef6a2fabb135a35b8ebdade3.jpg]
[cdn.scentbird.com/assets/content/first-section/nickPage-bg@2x-029bc42bbdd7e111cf30e3628ba4ab01.jpg]
[cdn.scentbird.com/assets/content/first-section/first-section-mobile@2x-9f4f42c4334bacdde7595b56f8350e53.jpg]
[cdn.scentbird.com/assets/content/first-section/first-section-men-mobile@2x-7fa3ab45871f4788dd4bdf27fb10fd06.jpg]
[cdn.scentbird.com/assets/content/first-section/case-men-9b3de75f96f4dc36f776299ce1c9153e.jpg]
[cdn.scentbird.com/assets/content/first-section/case-men@2x-72e982825ecd5db5bcad3c725f673fd4.jpg]
[cdn.scentbird.com/assets/content/first-section/mans-half-face-469bd8ea8114803ede6299d0da07ad59.png]
[cdn.scentbird.com/assets/content/first-section/womans-half-face-fc40726e4efe0b8151152d120807f96c.png]
[cdn.scentbird.com/assets/content/first-section/two-cases-40d6def82a177a2320a770fe5b105d75.png]
[cdn.scentbird.com/assets/content/first-section/mans-half-face@2x-24cf126937f2751518c1447896a4d2ce.png]
[cdn.scentbird.com/assets/content/first-section/womans-half-face@2x-a9efe2096f530190a3ad38cd8e536954.png]
[cdn.scentbird.com/assets/content/first-section/two-cases@2x-adc708b87ba7acf37c78d3fac079e433.png]
[cdn.scentbird.com/assets/content/first-section/hand-and-brands-men-96e8e8fafb0044d3f3cf921a994ffc79.png]
[cdn.scentbird.com/assets/content/first-section/hand-and-brands-63dce3469e546877bad5e4db8f2c0fac.png]
[cdn.scentbird.com/assets/content/first-section/hand2-19e7fee6220da9da6b95c04807c6f0bf.png]
[cdn.scentbird.com/assets/content/first-section/brands-6e3c6bc20ade3c298e2b79f6a8045ebb.png]
[cdn.scentbird.com/assets/content/first-section/hand-and-brands-men@2x-c3f3ffc1a11c623d1b8abb01eca9d21f.png]
[cdn.scentbird.com/assets/content/first-section/hand-and-brands@2x-46dbfe7a3875e381e78a13f1d39dee9d.png]
[cdn.scentbird.com/assets/content/first-section/hand2@2x-8722e48516bd7b2ff2da5031fa4189e3.png]
[cdn.scentbird.com/assets/content/first-section/brands@2x-3983373ee19cfa45d1aab5e137624d30.png]
[cdn.scentbird.com/assets/app/header-footer-56ac2270e16f11675c5b7a4669729f82.css]
[cdn.scentbird.com/assets/bird_round-16eb6ed42fd7a87d1fd41979f20cdf42.gif]
[cdn.scentbird.com/assets/promo/offers/xmas/xmas-24f9605211ab0004166a60890778118c.png]
[cdn.scentbird.com/assets/promo/offers/xmas/xmas@2x-b69051b8b6ac322cfb76e3c67ec3ec4c.png]
[cdn.scentbird.com/assets/promo/offers/xmas/xmas_mob-3fd0bb4781add9ca5d8871b4d3f0af54.png]
[cdn.scentbird.com/assets/promo/offers/xmas/xmas_mob@2x-01c9f806653301a6dcf638369b308560.png]
[cdn.scentbird.com/assets/promo/offers/50_off/50_off-20c68946f52fe12db50a87651f901147.png]
[cdn.scentbird.com/assets/promo/offers/50_off/50_off-men-24e937b5a47415ee15d83ef22d0f7c88.png]
[cdn.scentbird.com/assets/promo/offers/50_off/50_off@2x-9f0b637740fd091a621e1bffbcf1a431.png]
[cdn.scentbird.com/assets/promo/offers/50_off/50_off-men@2x-e26d2cbba75a8e904250504738c3ec92.png]
[cdn.scentbird.com/assets/promo/offers/50_off/50_off_tab-20d93d74510fb49418cee8c375250ab8.png]
[cdn.scentbird.com/assets/promo/offers/50_off/50_off_tab-men-0ddb0dd9c131a07167022e9978b9952e.png]
[cdn.scentbird.com/assets/promo/offers/50_off/50_off_tab@2x-46ac8ba3769753f86217cc0f6c6f40b3.png]
[cdn.scentbird.com/assets/promo/offers/50_off/50_off_tab-men@2x-70ee34debbb20a57860c408694e58d3d.png]
[cdn.scentbird.com/assets/promo/offers/50_off/50_off_mob-d291759339af87e6b1d0bc6151c471f6.png]
[cdn.scentbird.com/assets/promo/offers/50_off/50_off_mob-men-5f4cb1a6db067ac61f63b879f19814c0.png]
[cdn.scentbird.com/assets/promo/offers/50_off/50_off_mob@2x-e2575fe33f39d8be4115adabd27f8af0.png]
[cdn.scentbird.com/assets/promo/offers/50_off/50_off_mob-men@2x-e65d7a8ad3bffee13fdadf46eda20017.png]
[cdn.scentbird.com/assets/content/features-list/hand-creams@2x-0c69131c7fb00a381ee5c21a1c0af51a.jpg]
[cdn.scentbird.com/assets/content/steps-to-get/background-6d686bf3785a1527ce9613fc320f3eca.jpg]
[cdn.scentbird.com/assets/content/steps-to-get/background-men-5007b921a5939b304ae20668c00174b8.jpg]
[cdn.scentbird.com/assets/content/steps-to-get/hand-creams@2x-83b20edc652c31fc2caea85e09e75946.jpg]
[cdn.scentbird.com/assets/content/steps-to-get/hand-creams-mobile@2x-b21fe4fd1b1284f39ebde7422e338193.jpg]
[cdn.scentbird.com/assets/content/steps-to-get/nickPage-bg@2x-dde4610c2d9285550d0b4671ea266bb5.jpg]
[cdn.scentbird.com/assets/content/steps-to-get/nickPage-bg-men@2x-647e5466578f6c1899964c000cf2869d.jpg]
[cdn.scentbird.com/assets/content/steps-to-get/background@2x-42cb9a3544841873c39f84c4a40ba61c.jpg]
[cdn.scentbird.com/assets/content/steps-to-get/background-men@2x-8e909b99634819ae7a2953b27ed78309.jpg]
[cdn.scentbird.com/assets/content/press-board/inc-eea36966ab07e2ed659d6d83531b3e54.png]
[cdn.scentbird.com/assets/content/press-board/refinery29-f89f833027ea6bdf3b75e456ad9bb1cc.png]
[cdn.scentbird.com/assets/content/press-board/bazaar-ab8946fc3644fe17a3102b2e35c87110.png]
[cdn.scentbird.com/assets/content/press-board/glamour-e539bb36b515579741fd7f45901afef9.png]
[cdn.scentbird.com/assets/content/press-board/britco-ea8b399a9ff5454425f0fbe80f9fc22a.png]
[cdn.scentbird.com/assets/content/press-board/businessinsider-323b8bc59a47adc8aae86580c3d8a10d.png]
[cdn.scentbird.com/assets/content/press-board/techcrunch-c1e71b8f6a6d54e5124e500ab2a4eadd.png]
[cdn.scentbird.com/assets/content/press-board/instyle-507de6ffec78af5e89f792f72d6fd81f.png]
[cdn.scentbird.com/assets/content/press-board/forbes-0908f746afc2d8d167ad620f25d911f0.png]
[cdn.scentbird.com/assets/content/press-board/fashionista-c47315d69ff4318cffbf40cec0817886.png]
[cdn.scentbird.com/assets/content/press-board/abc-d283cb0182bec4bc36ca903d58229c0e.png]
[cdn.scentbird.com/assets/content/press-board/today-7528a7c79468b7245bd9ff6331181ac6.png]
[cdn.scentbird.com/assets/content/subscribe-section/background-2eba0b301034ef7ac3e8e277ad52dda2.jpg]
[cdn.scentbird.com/assets/content/subscribe-section/background-men-c7254f561f2d2ffcb33a68f6b18cdb81.jpg]
[cdn.scentbird.com/assets/content/subscribe-section/nickPage-bg-men@2x-cae2c12d32660987fa68a0bb0477948e.jpg]
[cdn.scentbird.com/assets/content/subscribe-section/nickPage-bg@2x-0e817570e4ae5293a1176d2a67622c23.jpg]
[cdn.scentbird.com/assets/content/subscribe-section/background@2x-6f05be95170ceef3f961b3ff96634cc0.jpg]
[cdn.scentbird.com/assets/content/subscribe-section/background-men@2x-f55ef19057c12249ea5649b738a66847.jpg]
[cdn.scentbird.com/assets/submit_arrow-004c819112fc3fec7330aaf3f267877f.png]
[cdn.scentbird.com/assets/content/first-section/esquare-2736fb031baed381cd514d58af039617.png]
[cdn.scentbird.com/assets/promo/offers/free_gift/free_gift-1e3e25d5fb795586c0168f805a5023c3.png]
[cdn.scentbird.com/assets/promo/offers/free_gift/free_gift@2x-a73e1d9a440afc8c08c220f3b6d9ae6e.png]
[cdn.scentbird.com/assets/promo/offers/free_gift/free_gift_mob-08939af06bea24445e64f40900f81cbf.png]
[cdn.scentbird.com/assets/promo/offers/free_gift/free_gift_mob@2x-4224a48f6ad51e52eb767de914b27ad7.png]
[cdn.scentbird.com/assets/promo/offers/free_gift_5/free_gift_5-78ccdba03099da27cc47c6cc19dd8c53.png]
[cdn.scentbird.com/assets/promo/offers/free_gift_5/free_gift_5@2x-9a231e0566a4af2acfcdffaf83d0d7b1.png]
[cdn.scentbird.com/assets/promo/offers/free_gift_5/free_gift_5_mob-a4bda01a333686d849f0baa068b59f32.png]
[cdn.scentbird.com/assets/promo/offers/free_gift_5/free_gift_5_mob@2x-78c83dd56485ada5975c932db682f652.png]
[cdn.scentbird.com/assets/promo/offers/blackfriday/blackfriday-1010855f2a2af874408592bf4a095b33.png]
[cdn.scentbird.com/assets/promo/offers/blackfriday/blackfriday@2x-fa231ae0fa1dd1c127b9917912c38945.png]
[cdn.scentbird.com/assets/promo/offers/blackfriday/blackfriday_tab-bc3c8574cc8181d726d07a0baa8651e1.png]
[cdn.scentbird.com/assets/promo/offers/blackfriday/blackfriday_tab@2x-5d05036272567bcb8f83c15082e624d1.png]
[cdn.scentbird.com/assets/promo/offers/blackfriday/blackfriday_mob-af578d66f1424437608159cacb622ef1.png]
[cdn.scentbird.com/assets/promo/offers/blackfriday/blackfriday_mob@2x-bc6f70dc3b6a8302b8f07be6da18b844.png]
[cdn.scentbird.com/assets/promo/offers/cybermonday/cybermonday-c8cfe95d63bc3099597d3f98835e2a1f.png]
[cdn.scentbird.com/assets/promo/offers/cybermonday/cybermonday@2x-6f41bf983b150da09528e7ee4793de72.png]
[cdn.scentbird.com/assets/promo/offers/cybermonday/cybermonday_tab-7aeda069bb1e4cdf495ee4ff52b29209.png]
[cdn.scentbird.com/assets/promo/offers/cybermonday/cybermonday_tab@2x-aa6da74f451e1f492f32e72fba80f875.png]
[cdn.scentbird.com/assets/promo/offers/cybermonday/cybermonday_mob-1a17d47579e631356b89a9797436c1b1.png]
[cdn.scentbird.com/assets/promo/offers/cybermonday/cybermonday_mob@2x-e99a4a0fdbdb88f742d7095e180a649e.png]
[cdn.scentbird.com/assets/app/free-scentbird-perfume-social-18200d117ca56e9ff110a6d98355a914.css]
[cdn.scentbird.com/assets/common/countdown-9c443afa41d88ed704db693785030fdd.js]
[cdn.scentbird.com/assets/app/home-page-8e123e1812d97e97356851b2b27fddc2.css]
[www.scentbird.com/index.html]
[cdn.scentbird.com/assets/app/home-page-c2ecc60024d4599d29cdfa34a19d2221.js]
[www.scentbird.com/assets/logo/white.svg]
[www.scentbird.com/assets/logo/black.svg]
[cdn.scentbird.com/assets/app/home-page-men-a23d4b192d71d5244f0f418887898d3a.css]
[cdn.scentbird.com/assets/content/features-list/scentbird-case-men-284c31799624269caae9fb51d9e14d2d.jpg]
[cdn.scentbird.com/assets/common/modal-12c61a6b8e766e22fe9ed0818ffe449f.js]
[www.scentbird.com/men.html]
[cdn.scentbird.com/assets/app/home-page-men-724aa07f4017f22653c3f7750a788069.js]
[cdn.scentbird.com/assets/tags/male/fresh.jpg]
[cdn.scentbird.com/assets/tags/male/adventurous.jpg]
[cdn.scentbird.com/assets/tags/male/casual.jpg]
[cdn.scentbird.com/assets/tags/male/trendsetter.jpg]
[cdn.scentbird.com/assets/tags/male/hanging_out.jpg]
[cdn.scentbird.com/assets/tags/male/woody.jpg]
[cdn.scentbird.com/assets/tags/male/office.jpg]
[cdn.scentbird.com/assets/tags/male/date_night.jpg]
[cdn.scentbird.com/assets/tags/male/workout.jpg]
[cdn.scentbird.com/assets/tags/male/classic.jpg]
[cdn.scentbird.com/assets/tags/male/spicy.jpg]
[cdn.scentbird.com/assets/tags/male/citrusy.jpg]
[cdn.scentbird.com/assets/tags/female/fresh.jpg]
[cdn.scentbird.com/assets/tags/female/powdery.jpg]
[cdn.scentbird.com/assets/tags/female/light.jpg]
[cdn.scentbird.com/assets/tags/female/warm.jpg]
[cdn.scentbird.com/assets/tags/female/floral.jpg]
[cdn.scentbird.com/assets/tags/female/fruity.jpg]
[cdn.scentbird.com/assets/tags/female/woody.jpg]
[cdn.scentbird.com/assets/tags/female/aquatic.jpg]
[cdn.scentbird.com/assets/tags/female/office.jpg]
[cdn.scentbird.com/assets/tags/female/date_night.jpg]
[cdn.scentbird.com/assets/tags/female/party.jpg]
[cdn.scentbird.com/assets/tags/female/everyday.jpg]
[cdn.scentbird.com/assets/tags/female/vacation.jpg]
[cdn.scentbird.com/assets/tags/female/workout.jpg]
[cdn.scentbird.com/assets/tags/female/sexy.jpg]
[cdn.scentbird.com/assets/tags/female/elegant.jpg]
[cdn.scentbird.com/assets/tags/female/classic.jpg]
[cdn.scentbird.com/assets/tags/female/flirty.jpg]
[cdn.scentbird.com/assets/tags/female/mysterious.jpg]
[cdn.scentbird.com/assets/tags/female/clean.jpg]
[cdn.scentbird.com/assets/tags/female/spicy.jpg]
[cdn.scentbird.com/assets/tags/female/citrusy.jpg]
[cdn.scentbird.com/assets/tags/female/summer.jpg]
[cdn.scentbird.com/assets/tags/female/fall.jpg]
[cdn.scentbird.com/assets/tags/female/winter.jpg]
[cdn.scentbird.com/assets/tags/female/spring.jpg]
[cdn.scentbird.com/assets/tags/female/strong.jpg]
[cdn.scentbird.com/assets/tags/female/sweet.jpg]
[cdn.scentbird.com/assets/app/redux-new-page-48a793d78c7f20cc8b177b09778e0773.css]
[cdn.polyfill.io/v2/polyfill.min8a7a.js]
[www.scentbird.com/how-it-works.html]
[cdn.scentbird.com/assets/app/empty-10d807ae0984464838665b009a791954.css]
[cdn.scentbird.com/assets/app/redux-new-page-vendor-309fc5f356f4db78a70b3374b02e2ecd.js]
[www.scentbird.com/register/linkid.html]
[cdn.scentbird.com/assets/app/redux-new-page-ed77e0e87723c6cdb20c3916669ffa69.js]
[cdn.scentbird.com/assets/app/redux-page-067cfb1bc2cef3f8a2e9f21ce57c5802.css]
[cdn.scentbird.com/assets/app/empty-4c883b325c568ec0dac55db15e53444e.js]
[www.scentbird.com/register/log-in.html]
[cdn.scentbird.com/assets/app/redux-page-51898c13b7adf5cca35c346e56b2af80.js]
[www.scentbird.com/invite.html]
[www.scentbird.com/team.html]
[www.scentbird.com/blogger.html]
[cdn.jsdelivr.net/jquery.slick/1.6.0/slick.css]
[cdn.scentbird.com/assets/app/cms-page-9d1214fab2b94249e47b233aede288c1.css]
[cdnjs.cloudflare.com/ajax/libs/jquery/2.2.4/jquery.min.js]
[cdn.jsdelivr.net/jquery.slick/1.6.0/slick.min.js]
[scentbird.s3-eu-west-1.amazonaws.com/cms/1488149817716hts.img.1.jpg]
[scentbird.s3-eu-west-1.amazonaws.com/cms/1488149818836hts.img.2.jpg]
[scentbird.s3-eu-west-1.amazonaws.com/cms/1488149820219hts.img.3.jpg]
[scentbird.s3-eu-west-1.amazonaws.com/cms/1488149821603hts.img.4.jpg]
[scentbird.s3-eu-west-1.amazonaws.com/cms/1488149822972hts.img.5.jpg]
[scentbird.s3-eu-west-1.amazonaws.com/cms/1488149824485hts.img.6.jpg]
[scentbird.s3-eu-west-1.amazonaws.com/cms/1488149825944review.img.1.jpg]
[scentbird.s3-eu-west-1.amazonaws.com/cms/1488149827067review.img.2.jpg]
[scentbird.s3-eu-west-1.amazonaws.com/cms/1488149828178review.img.3.jpg]
[www.scentbird.com/affiliate-program.html]
[www.scentbird.com/press.html]
[cdn.scentbird.com/assets/app/cms-page-35a3cdfea526c70d7229b8c6651d0548.js]
[ajax.googleapis.com/ajax/libs/jquery/2.2.4/jquery.min.js]
[www.scentbird.com/blog/wp-content/plugins/i-recommend-this/css/dot-irecommendthiscbf4.css]
[www.scentbird.com/blog/feed/index.html]
[www.scentbird.com/blog/comments/feed/index.html]
[www.scentbird.com/blog/wp-content/themes/adeline/css/bootstrap/css/bootstrap.min.css]
[www.scentbird.com/blog/wp-content/themes/adeline/css/fontawesome/css/font-awesome.min.css]
[www.scentbird.com/blog/wp-content/themes/adeline/js/owl-carousel/owl.carousel.min.css]
[www.scentbird.com/blog/page/2/index.html]
[www.scentbird.com/blog/wp-content/themes/adeline/style.css]
[www.scentbird.com/blog/wp-content/plugins/jetpack/_inc/social-logos/social-logos.min68b3.css]
[www.scentbird.com/blog/wp-content/plugins/jetpack/css/jetpacke23c.css]
[www.scentbird.com/blog/wp-content/plugins/jquery-updater/js/jquery-3.2.1.mindeae.js]
[www.scentbird.com/blog/wp-content/plugins/jquery-updater/js/jquery-migrate-3.0.0.min6e0e.js]
[www.scentbird.com/blog/wp-content/plugins/jetpack/_inc/build/spin.min4e44.js]
[www.scentbird.com/blog/wp-content/plugins/jetpack/_inc/build/jquery.spin.min4e44.js]
[platform-api.sharethis.com/js/sharethis.js]
[www.scentbird.com/blog/xmlrpc0db0.php]
[www.scentbird.com/blog/wp-json/index.html]
[www.scentbird.com/blog/wp-includes/wlwmanifest.xml]
[www.scentbird.com/blog/wp-content/uploads/2017/02/Scentbird-logo.svg]
[i2.wp.com/www.scentbird.com/blog/wp-content/uploads/2018/02/scentbird-candles92f8.png]
[www.scentbird.com/blog/amp/index.html]
[i1.wp.com/www.scentbird.com/blog/wp-content/uploads/2018/01/08_PH_Elizabeth_James_5144-copy_C0f2c.png]
[www.scentbird.com/blog/lighten-brighten-home-scentbird-candles/index.html]
[www.scentbird.com/blog/category/perfume-of-the-day/index.html]
[i2.wp.com/www.scentbird.com/blog/wp-content/uploads/2018/02/trending-on-scentbird580b.png]
[www.scentbird.com/blog/category/home-fragrances/index.html]
[www.scentbird.com/blog/category/home-fragrances/scented-candles/index.html]
[i1.wp.com/www.scentbird.com/blog/wp-content/uploads/2017/03/17200935_10212193295411117_7147425732690450646_n-1dcb9.jpg]
[www.scentbird.com/blog/new-scentbird-elizabeth-james-nirvana/index.html]
[i2.wp.com/www.scentbird.com/blog/wp-content/uploads/2018/02/philosophy92f8.png]
[www.scentbird.com/blog/trendingonscentbird-the-reviews-are-in-here-are-our-top-rated-perfumes-you-need-to-wear-in-february-2018/index.html]
[www.scentbird.com/blog/category/new-on-scentbird/index.html]
[i2.wp.com/www.scentbird.com/blog/wp-content/uploads/2018/02/philosophya9a3.png]
[www.scentbird.com/blog/category/scentbird-spotlights/index.html]
[www.scentbird.com/blog/new-scentbird-philosophy/index.html]
[www.scentbird.com/blog/author/steve-johnson/index.html]
[i2.wp.com/www.scentbird.com/blog/wp-content/uploads/2017/05/colognes-for-mature-men580b.jpg]
[www.scentbird.com/blog/your-monday-to-friday-cologne-strategy/index.html]
[i2.wp.com/www.scentbird.com/blog/wp-content/uploads/2017/05/colognes-for-mature-mena9a3.jpg]
[www.scentbird.com/blog/author/marina/index.html]
[i1.wp.com/www.scentbird.com/blog/wp-content/uploads/2017/10/dana_karlson5a4a.jpg]
[www.scentbird.com/blog/category/men-fragrances/index.html]
[www.scentbird.com/blog/real-men-real-style-how-to-fragrance-like-a-pro/index.html]
[www.scentbird.com/blog/author/danakarlson/index.html]
[www.scentbird.com/blog/cologne-noir-coming-winter-shadows/index.html]
[www.scentbird.com/blog/category/lifestyle/index.html]
[i2.wp.com/www.scentbird.com/blog/wp-content/uploads/2017/08/oriental-fragrancesd11a.png]
[i2.wp.com/www.scentbird.com/blog/wp-content/uploads/2017/08/oriental-fragrances83ed.png]
[i0.wp.com/www.scentbird.com/blog/wp-content/uploads/2017/06/summer-wedding-perfumes580b.png]
[www.scentbird.com/blog/decadent-gourmand-scents/index.html]
[www.scentbird.com/blog/category/scent-spotlights/index.html]
[i0.wp.com/www.scentbird.com/blog/wp-content/uploads/2017/06/summer-wedding-perfumesa9a3.png]
[i2.wp.com/www.scentbird.com/blog/wp-content/uploads/2016/08/pisces87f8.png]
[www.scentbird.com/blog/perfume-horoscope-pisces/index.html]
[www.scentbird.com/blog/category/perfume-horoscope/index.html]
[i2.wp.com/www.scentbird.com/blog/wp-content/uploads/2016/08/pisces2f25.png]
[i0.wp.com/www.scentbird.com/blog/wp-content/uploads/2018/01/10-e151630487730092f8.jpg]
[www.scentbird.com/blog/just-in-derek-lam-10-crosby/index.html]
[i0.wp.com/www.scentbird.com/blog/wp-content/uploads/2018/01/10-e1516304877300a9a3.jpg]
[i1.wp.com/www.scentbird.com/blog/wp-content/uploads/2016/11/office-cologne92f8.png]
[www.scentbird.com/blog/workplace-cologne-101-best-office-fragrances-men/index.html]
[i1.wp.com/www.scentbird.com/blog/wp-content/uploads/2016/11/office-colognea9a3.png]
[i2.wp.com/www.scentbird.com/blog/wp-content/uploads/2018/02/st-valentines-scentbird92f8.png]
[www.scentbird.com/blog/happy-valentines-day-2/index.html]
[i2.wp.com/www.scentbird.com/blog/wp-content/uploads/2018/02/st-valentines-scentbirda9a3.png]
[www.scentbird.com/blog/fall-in-love-with-these-romantic-scents/index.html]
[www.scentbird.com/blog/category/perfume-for-any-occasion/index.html]
[www.scentbird.com/blog/category/perfume-101/index.html]
[i0.wp.com/www.scentbird.com/blog/wp-content/uploads/2017/08/powder-perfumes92f8.png]
[i0.wp.com/www.scentbird.com/blog/wp-content/uploads/2017/08/powder-perfumesa9a3.png]
[i0.wp.com/www.scentbird.com/blog/wp-content/uploads/2018/02/Valentines-Day-Gifts-You-Should-Give-Yourself-Scentbird92f8.png]
[www.scentbird.com/blog/valentines-day-gifts-give/index.html]
[i0.wp.com/www.scentbird.com/blog/wp-content/uploads/2018/02/Valentines-Day-Gifts-You-Should-Give-Yourself-Scentbirda9a3.png]
[i1.wp.com/www.scentbird.com/blog/wp-content/uploads/2018/01/08_PH_Elizabeth_James_5144-copy_C574a.png]
[i2.wp.com/www.scentbird.com/blog/wp-content/uploads/2018/02/scentbird-candlesa9a3.png]
[i2.wp.com/www.scentbird.com/blog/wp-content/uploads/2018/02/trending-on-scentbirda9a3.png]
[i2.wp.com/www.scentbird.com/blog/wp-content/uploads/2018/02/born-in-february580b.png]
[www.scentbird.com/blog/index.html]
[www.scentbird.com/careers.html]
[www.scentbird.com/subscription/smartsearch.html]
[www.scentbird.com/gift.html]
[www.scentbird.com/perfumes.html]
[www.scentbird.com/colognes.html]
[www.scentbird.com/privacy.html]
[www.scentbird.com/terms.html]
[cdn.scentbird.com/assets/app/commons-49b2124684ed4d2ecd5fbebfdac4823d.js]
[cdn.scentbird.com/assets/app/header-footer-eb9d721bc0eb0cd2b7eaead3ef72852a.js]
[cdn.scentbird.com/assets/common/scroll-to-62985de77ce83305de128bc7398d8828.js]
[cdn.scentbird.com/assets/app/free-scentbird-perfume-social-785ce16899941b9ea0028e469657af95.js]
[connect.facebook.net/en_US/fbevents.js]
[cdn.scentbird.com/assets/app/home-page-8e123e1812d97e97356851b2b27fddc2.css]
[cdn.scentbird.com/assets/app/home-page-c2ecc60024d4599d29cdfa34a19d2221.js]
[cdn.scentbird.com/assets/app/home-page-men-a23d4b192d71d5244f0f418887898d3a.css]
[cdn.scentbird.com/assets/common/modal-12c61a6b8e766e22fe9ed0818ffe449f.js]
[cdn.scentbird.com/assets/app/home-page-men-724aa07f4017f22653c3f7750a788069.js]
[cdn.scentbird.com/assets/tags/male/summer.jpg]
[cdn.scentbird.com/assets/tags/male/fall.jpg]
[cdn.scentbird.com/assets/tags/male/winter.jpg]
[cdn.scentbird.com/assets/tags/male/spring.jpg]
[cdn.scentbird.com/assets/app/redux-new-page-48a793d78c7f20cc8b177b09778e0773.css]
[cdn.scentbird.com/assets/app/redux-new-page-vendor-309fc5f356f4db78a70b3374b02e2ecd.js]
[cdn.scentbird.com/assets/app/redux-new-page-ed77e0e87723c6cdb20c3916669ffa69.js]
[cdn.scentbird.com/assets/app/empty-10d807ae0984464838665b009a791954.css]
[www.scentbird.com/register/linkid.html]
[cdn.scentbird.com/assets/app/redux-page-067cfb1bc2cef3f8a2e9f21ce57c5802.css]
[cdn.scentbird.com/assets/app/empty-4c883b325c568ec0dac55db15e53444e.js]
[cdn.scentbird.com/assets/app/redux-page-51898c13b7adf5cca35c346e56b2af80.js]
[cdn.jsdelivr.net/jquery.slick/1.6.0/slick.css]
[cdn.scentbird.com/assets/app/cms-page-9d1214fab2b94249e47b233aede288c1.css]
[cdn.scentbird.com/assets/app/cms-page-35a3cdfea526c70d7229b8c6651d0548.js]
[www.scentbird.com/blog/page/2/index.html]
[www.scentbird.com/blog/wp-content/plugins/i-recommend-this/css/dot-irecommendthiscbf4.css]
[www.scentbird.com/blog/wp-content/themes/adeline/css/bootstrap/css/bootstrap.min.css]
[www.scentbird.com/blog/wp-content/themes/adeline/css/fontawesome/css/font-awesome.min.css]
[www.scentbird.com/blog/wp-content/themes/adeline/js/owl-carousel/owl.carousel.min.css]
[www.scentbird.com/blog/wp-content/themes/adeline/style.css]
[www.scentbird.com/blog/wp-content/plugins/jetpack/_inc/social-logos/social-logos.min68b3.css]
[www.scentbird.com/blog/wp-content/plugins/jetpack/css/jetpacke23c.css]
[www.scentbird.com/blog/wp-content/plugins/jquery-updater/js/jquery-3.2.1.mindeae.js]
[www.scentbird.com/blog/wp-content/plugins/jquery-updater/js/jquery-migrate-3.0.0.min6e0e.js]
[www.scentbird.com/blog/wp-content/plugins/jetpack/_inc/build/spin.min4e44.js]
[www.scentbird.com/blog/wp-content/plugins/jetpack/_inc/build/jquery.spin.min4e44.js]
[www.scentbird.com/blog/amp/index.html]
[www.scentbird.com/blog/wp-content/uploads/2017/02/Scentbird-logo.svg]
[www.scentbird.com/blog/category/perfume-of-the-day/index.html]
[www.scentbird.com/blog/lighten-brighten-home-scentbird-candles/index.html]
[www.scentbird.com/blog/category/home-fragrances/index.html]
[www.scentbird.com/blog/category/home-fragrances/scented-candles/index.html]
[www.scentbird.com/blog/new-scentbird-elizabeth-james-nirvana/index.html]
[www.scentbird.com/blog/category/new-on-scentbird/index.html]
[www.scentbird.com/blog/trendingonscentbird-the-reviews-are-in-here-are-our-top-rated-perfumes-you-need-to-wear-in-february-2018/index.html]
[www.scentbird.com/blog/category/scentbird-spotlights/index.html]
[www.scentbird.com/blog/new-scentbird-philosophy/index.html]
[www.scentbird.com/blog/author/steve-johnson/index.html]
[www.scentbird.com/blog/your-monday-to-friday-cologne-strategy/index.html]
[www.scentbird.com/blog/author/marina/index.html]
[www.scentbird.com/blog/category/men-fragrances/index.html]
[www.scentbird.com/blog/real-men-real-style-how-to-fragrance-like-a-pro/index.html]
[www.scentbird.com/blog/author/danakarlson/index.html]
[www.scentbird.com/blog/category/lifestyle/index.html]
[www.scentbird.com/blog/cologne-noir-coming-winter-shadows/index.html]
[www.scentbird.com/blog/decadent-gourmand-scents/index.html]
[www.scentbird.com/blog/category/scent-spotlights/index.html]
[www.scentbird.com/blog/perfume-horoscope-pisces/index.html]
[www.scentbird.com/blog/category/perfume-horoscope/index.html]
[www.scentbird.com/blog/just-in-derek-lam-10-crosby/index.html]
[www.scentbird.com/blog/workplace-cologne-101-best-office-fragrances-men/index.html]
[www.scentbird.com/blog/happy-valentines-day-2/index.html]
[www.scentbird.com/blog/category/perfume-for-any-occasion/index.html]
[www.scentbird.com/blog/fall-in-love-with-these-romantic-scents/index.html]
[www.scentbird.com/blog/category/perfume-101/index.html]
[www.scentbird.com/blog/valentines-day-gifts-give/index.html]
[www.scentbird.com/blog/born-february-personality-traits-perfume-match/index.html]
